../Drivers/CMSIS/Include/core_cm4.h:1684:22:void __NVIC_EnableIRQ(IRQn_Type)	16	static,ignoring_inline_asm
../Drivers/CMSIS/Include/core_cm4.h:1722:22:void __NVIC_DisableIRQ(IRQn_Type)	16	static,ignoring_inline_asm
D:\ST\STM32CubeIDE_1.13.2\STM32CubeIDE\plugins\com.st.stm32cube.ide.mcu.externaltools.gnu-tools-for-stm32.12.3.rel1.win32_1.0.100.202403111256\tools\arm-none-eabi\include\c++\12.3.1\arm-none-eabi\thumb\v7e-m+fp\hard\bits\c++config.h:516:3:constexpr bool std::__is_constant_evaluated()	4	static
D:\ST\STM32CubeIDE_1.13.2\STM32CubeIDE\plugins\com.st.stm32cube.ide.mcu.externaltools.gnu-tools-for-stm32.12.3.rel1.win32_1.0.100.202403111256\tools\arm-none-eabi\include\c++\12.3.1\arm-none-eabi\thumb\v7e-m+fp\hard\bits\gthr-default.h:229:1:int __gthread_key_delete(__gthread_key_t)	16	static
D:\ST\STM32CubeIDE_1.13.2\STM32CubeIDE\plugins\com.st.stm32cube.ide.mcu.externaltools.gnu-tools-for-stm32.12.3.rel1.win32_1.0.100.202403111256\tools\arm-none-eabi\include\c++\12.3.1\bits\char_traits.h:393:7:static constexpr std::size_t std::char_traits<char>::length(const char_type*)	16	static
../Core/Src/Mcu2.c:12:19:HAL_StatusTypeDef mcu_spi_flash_transmit_data(uint8_t*, size_t)	16	static
../Core/Src/Mcu2.c:17:19:HAL_StatusTypeDef mcu_spi_flash_receive_data(uint8_t*, size_t)	16	static
../Core/Src/Mcu2.c:22:6:void mcu_spi_flash_chip_select_pin_set()	8	static
../Core/Src/Mcu2.c:27:6:void mcu_spi_flash_chip_select_pin_reset()	8	static
../Core/Src/Mcu2.c:33:6:void mcu_delay_ms(uint32_t)	16	static
../Core/Src/Mcu2.c:38:6:void mcu_enable_usb_interrupt()	8	static
../Core/Src/Mcu2.c:43:6:void mcu_disable_usb_interrupt()	8	static
../Core/Src/Mcu2.c:48:6:void mcu_usb_send_frame(uint8_t*, uint16_t)	16	static
../Core/Src/main.cpp:98:5:int add_frame(uint8_t*, uint32_t*)	16	static
../Core/Src/main.cpp:103:5:int usb_send_answer(uint8_t*, uint16_t)	16	static
../Core/Src/main.cpp:108:6:void HAL_GPIO_EXTI_Callback(uint16_t)	16	static
../Core/Src/main.cpp:153:5:int main()	208	static
../Core/Src/main.cpp:277:6:void SystemClock_Config()	88	static
../Core/Src/main.cpp:323:13:void MX_I2C1_Init()	8	static
../Core/Src/main.cpp:357:13:void MX_I2S3_Init()	8	static
../Core/Src/main.cpp:391:13:void MX_SPI1_Init()	8	static
../Core/Src/main.cpp:429:13:void MX_TIM2_Init()	32	static
../Core/Src/main.cpp:474:13:void MX_USART1_UART_Init()	8	static
../Core/Src/main.cpp:507:13:void MX_GPIO_Init()	56	static
../Core/Src/main.cpp:635:6:void Error_Handler()	4	static,ignoring_inline_asm
D:\ST\STM32CubeIDE_1.13.2\STM32CubeIDE\plugins\com.st.stm32cube.ide.mcu.externaltools.gnu-tools-for-stm32.12.3.rel1.win32_1.0.100.202403111256\tools\arm-none-eabi\include\c++\12.3.1\bits\char_traits.h:182:5:static constexpr std::size_t __gnu_cxx::char_traits<_CharT>::length(const char_type*) [with _CharT = char]	24	static
D:\ST\STM32CubeIDE_1.13.2\STM32CubeIDE\plugins\com.st.stm32cube.ide.mcu.externaltools.gnu-tools-for-stm32.12.3.rel1.win32_1.0.100.202403111256\tools\arm-none-eabi\include\c++\12.3.1\bits\basic_string.h:192:14:std::__cxx11::basic_string<char>::_Alloc_hider::~_Alloc_hider()	16	static
D:\ST\STM32CubeIDE_1.13.2\STM32CubeIDE\plugins\com.st.stm32cube.ide.mcu.externaltools.gnu-tools-for-stm32.12.3.rel1.win32_1.0.100.202403111256\tools\arm-none-eabi\include\c++\12.3.1\bits\basic_string.h:642:7:std::__cxx11::basic_string<_CharT, _Traits, _Alloc>::basic_string(const _CharT*, const _Alloc&) [with <template-parameter-2-1> = std::allocator<char>; _CharT = char; _Traits = std::char_traits<char>; _Alloc = std::allocator<char>]	40	static
D:\ST\STM32CubeIDE_1.13.2\STM32CubeIDE\plugins\com.st.stm32cube.ide.mcu.externaltools.gnu-tools-for-stm32.12.3.rel1.win32_1.0.100.202403111256\tools\arm-none-eabi\include\c++\12.3.1\bits\char_traits.h:121:7:static constexpr bool __gnu_cxx::char_traits<_CharT>::eq(const char_type&, const char_type&) [with _CharT = char]	16	static
D:\ST\STM32CubeIDE_1.13.2\STM32CubeIDE\plugins\com.st.stm32cube.ide.mcu.externaltools.gnu-tools-for-stm32.12.3.rel1.win32_1.0.100.202403111256\tools\arm-none-eabi\include\c++\12.3.1\bits\basic_string.tcc:235:13:std::__cxx11::basic_string<_CharT, _Traits, _Alloc>::_M_construct(_InIterator, _InIterator, std::forward_iterator_tag)::_Guard::_Guard(std::__cxx11::basic_string<_CharT, _Traits, _Alloc>*) [with _InIterator = const char*; _CharT = char; _Traits = std::char_traits<char>; _Alloc = std::allocator<char>]	16	static
D:\ST\STM32CubeIDE_1.13.2\STM32CubeIDE\plugins\com.st.stm32cube.ide.mcu.externaltools.gnu-tools-for-stm32.12.3.rel1.win32_1.0.100.202403111256\tools\arm-none-eabi\include\c++\12.3.1\bits\basic_string.tcc:238:4:std::__cxx11::basic_string<_CharT, _Traits, _Alloc>::_M_construct(_InIterator, _InIterator, std::forward_iterator_tag)::_Guard::~_Guard() [with _InIterator = const char*; _CharT = char; _Traits = std::char_traits<char>; _Alloc = std::allocator<char>]	16	static
D:\ST\STM32CubeIDE_1.13.2\STM32CubeIDE\plugins\com.st.stm32cube.ide.mcu.externaltools.gnu-tools-for-stm32.12.3.rel1.win32_1.0.100.202403111256\tools\arm-none-eabi\include\c++\12.3.1\bits\basic_string.tcc:217:7:void std::__cxx11::basic_string<_CharT, _Traits, _Alloc>::_M_construct(_InIterator, _InIterator, std::forward_iterator_tag) [with _FwdIterator = const char*; _CharT = char; _Traits = std::char_traits<char>; _Alloc = std::allocator<char>]	40	static
D:\ST\STM32CubeIDE_1.13.2\STM32CubeIDE\plugins\com.st.stm32cube.ide.mcu.externaltools.gnu-tools-for-stm32.12.3.rel1.win32_1.0.100.202403111256\tools\arm-none-eabi\include\c++\12.3.1\bits\stl_iterator_base_funcs.h:147:5:constexpr typename std::iterator_traits<_Iterator>::difference_type std::distance(_InputIterator, _InputIterator) [with _InputIterator = const char*]	24	static
../Core/Inc/json.hpp:3005:13:void nlohmann::json_abi_v3_11_3::detail::unescape(StringType&) [with StringType = std::__cxx11::basic_string<char>]	128	static
D:\ST\STM32CubeIDE_1.13.2\STM32CubeIDE\plugins\com.st.stm32cube.ide.mcu.externaltools.gnu-tools-for-stm32.12.3.rel1.win32_1.0.100.202403111256\tools\arm-none-eabi\include\c++\12.3.1\bits\stl_iterator_base_types.h:238:5:constexpr typename std::iterator_traits<_Iterator>::iterator_category std::__iterator_category(const _Iter&) [with _Iter = const char*]	16	static
D:\ST\STM32CubeIDE_1.13.2\STM32CubeIDE\plugins\com.st.stm32cube.ide.mcu.externaltools.gnu-tools-for-stm32.12.3.rel1.win32_1.0.100.202403111256\tools\arm-none-eabi\include\c++\12.3.1\bits\stl_iterator_base_funcs.h:99:5:constexpr typename std::iterator_traits<_Iterator>::difference_type std::__distance(_RandomAccessIterator, _RandomAccessIterator, random_access_iterator_tag) [with _RandomAccessIterator = const char*]	24	static
../Core/Inc/json.hpp:2971:13:void nlohmann::json_abi_v3_11_3::detail::replace_substring(StringType&, const StringType&, const StringType&) [with StringType = std::__cxx11::basic_string<char>]	32	static
../Core/Src/main.cpp:644:1:void __static_initialization_and_destruction_0(int, int)	24	static
../Core/Src/main.cpp:644:1:cpp)	8	static
../Core/Src/main.cpp:644:1:cpp)	8	static
